{
  "project_info": {
    "project_number": "578110045146",
    "project_id": "youreadmin-4a08e",
    "storage_bucket": "youreadmin-4a08e.appspot.com"
  },
  "client": [
    {
      "client_info": {
        "mobilesdk_app_id": "1:578110045146:android:de3a74e6ce9c2daa35dee3",
        "android_client_info": {
          "package_name": "com.yes.admin"
        }
      },
      "oauth_client": [
        {
          "client_id": "578110045146-bmc5gsh2tfhg0h1mnnb2p7a3k3hn1b29.apps.googleusercontent.com",
          "client_type": 1,
          "android_info": {
            "package_name": "com.yes.admin",
            "certificate_hash": "1eaaba51f9b5c6a6a9b84ab9f65b26e87043e6b2"
          }
        },
        {
          "client_id": "578110045146-l2agbjqgkb5ficg6ipieamdhduv06oe2.apps.googleusercontent.com",
          "client_type": 3
        }
      ],
      "api_key": [
        {
          "current_key": "AIzaSyCA883D39OJO1as5poMDOXioJIFGRglZmE"
        }
      ],
      "services": {
        "appinvite_service": {
          "other_platform_oauth_client": [
            {
              "client_id": "578110045146-l2agbjqgkb5ficg6ipieamdhduv06oe2.apps.googleusercontent.com",
              "client_type": 3
            }
          ]
        }
      }
    }
  ],
  "configuration_version": "1"
}